C:\MOD 4\onlineStore\src\main\java\nl\utwente\di\store\resources\TechBooksResource.java
C:\MOD 4\onlineStore\src\main\java\nl\utwente\di\store\model\CatalogueItem.java
C:\MOD 4\onlineStore\src\main\java\nl\utwente\di\store\resources\KidsBooksResource.java
C:\MOD 4\onlineStore\src\main\java\nl\utwente\di\store\resources\ShoppingCartResource.java
C:\MOD 4\onlineStore\src\main\java\nl\utwente\di\store\dao\ShoppingCart.java
C:\MOD 4\onlineStore\src\main\java\nl\utwente\di\store\resources\CatalogueResource.java
C:\MOD 4\onlineStore\src\main\java\nl\utwente\di\store\dao\Catalogue.java
C:\MOD 4\onlineStore\src\main\java\nl\utwente\di\store\model\ItemOrder.java
